simulation/qsim/ProjetoSD.msim.vcd
$comment
	File created using the following command:
		vcd file ProjetoSD.msim.vcd -direction
$end
$date
	Thu Feb  9 19:08:23 2023
$end
$version
	ModelSim Version 2020.1
$end
$timescale
	1ps
$end

$scope module DecodificadorAB_vlg_vec_tst $end
$var reg 4 ! AB [3:0] $end
$var wire 1 " Bx $end
$var wire 1 # Cx $end
$var wire 1 $ Hx $end
$var wire 1 % Ix $end
$var wire 1 & Jx $end
$var wire 1 ' Kx $end
$var wire 1 ( Lx $end
$var wire 1 ) Mx $end
$var wire 1 * Nx $end

$scope module i1 $end
$var wire 1 + gnd $end
$var wire 1 , vcc $end
$var wire 1 - unknown $end
$var tri1 1 . devclrn $end
$var tri1 1 / devpor $end
$var tri1 1 0 devoe $end
$var wire 1 1 Bx~output_o $end
$var wire 1 2 Cx~output_o $end
$var wire 1 3 Hx~output_o $end
$var wire 1 4 Ix~output_o $end
$var wire 1 5 Jx~output_o $end
$var wire 1 6 Kx~output_o $end
$var wire 1 7 Lx~output_o $end
$var wire 1 8 Mx~output_o $end
$var wire 1 9 Nx~output_o $end
$var wire 1 : AB[3]~input_o $end
$var wire 1 ; AB[2]~input_o $end
$var wire 1 < AB[1]~input_o $end
$var wire 1 = inst6~0_combout $end
$var wire 1 > AB[0]~input_o $end
$var wire 1 ? inst14~0_combout $end
$var wire 1 @ inst21~0_combout $end
$var wire 1 A inst25~0_combout $end
$var wire 1 B inst34~0_combout $end
$var wire 1 C inst38~0_combout $end
$var wire 1 D inst47~0_combout $end
$var wire 1 E inst55~0_combout $end
$upscope $end
$upscope $end
$enddefinitions $end
#0
$dumpvars
b1011 !
1"
1#
0$
1%
1&
0'
0(
0)
0*
0+
1,
x-
1.
1/
10
11
12
03
14
15
06
07
08
09
1:
0;
1<
1=
1>
0?
1@
1A
1B
0C
0D
0E
$end
#5000
b1001 !
b1000 !
0>
0<
0B
1E
1D
1C
1?
0=
01
02
13
17
18
19
16
1'
1*
1)
1(
1$
0#
0"
#10000
b1100 !
1;
0D
0A
1=
11
12
05
08
0)
0&
1#
1"
#15000
b100 !
0:
1D
0C
1A
0?
0=
01
02
03
15
07
18
1)
0(
1&
0$
0#
0"
#20000
b110 !
b1110 !
1<
1:
1B
1=
11
12
06
0'
1#
1"
#25000
b1010 !
b1000 !
b0 !
0<
0;
0:
0B
0E
1C
1?
0=
01
02
13
17
09
16
1'
0*
1(
1$
0#
0"
#30000
b10 !
b1010 !
1<
1:
1=
11
12
1#
1"
#35000
b1110 !
b1100 !
0<
1;
1E
0D
0A
05
08
19
1*
0)
0&
#40000
b100 !
b0 !
b10 !
1<
0;
0:
0=
01
02
0#
0"
#45000
b11 !
b1011 !
b1111 !
b1101 !
1>
0<
1;
1:
0C
1A
1=
11
12
15
07
0(
1&
1#
1"
#50000
b101 !
b1 !
b11 !
1<
0;
0:
0=
01
02
0#
0"
#55000
b1011 !
b1001 !
0<
1:
1B
1D
18
06
0'
1)
#60000
b1101 !
b101 !
b111 !
1<
1;
0:
0E
0D
0@
04
08
09
0*
0)
0%
#65000
b110 !
b1110 !
b1100 !
0>
0<
1:
0B
1E
1C
0A
1@
1=
11
12
14
05
17
19
16
1'
1*
1(
0&
1%
1#
1"
#70000
b1101 !
b1111 !
1>
1<
1D
0C
1A
15
07
18
1)
0(
1&
#75000
b1011 !
b11 !
b10 !
b0 !
0>
0<
0;
0:
0E
1C
0=
01
02
17
09
0*
1(
0#
0"
#80000
b1000 !
b1010 !
1<
1:
1=
11
12
1#
1"
#85000
b1011 !
b11 !
1>
0:
1E
0D
0C
0=
01
02
07
08
19
1*
0)
0(
0#
0"
#90000
b1 !
0<
1B
0E
1D
0?
03
18
09
06
0'
0*
1)
0$
#95000
b101 !
b100 !
b1100 !
0>
1;
1:
0B
1E
0D
1C
0A
1?
1=
11
12
13
05
17
08
19
16
1'
1*
0)
1(
0&
1$
1#
1"
#100000
b1000 !
b1001 !
b1 !
1>
0;
0:
1B
0E
1D
0C
1A
0?
0=
01
02
03
15
07
18
09
06
0'
0*
1)
0(
1&
0$
0#
0"
#105000
b11 !
b111 !
b110 !
b1110 !
0>
1<
1;
1:
1E
1=
11
12
19
1*
1#
1"
#110000
b1111 !
1>
0B
1?
13
16
1'
1$
#115000
b111 !
0:
1B
0E
0D
0@
0=
01
02
04
08
09
06
0'
0*
0)
0%
0#
0"
#120000
b101 !
b1101 !
0<
1:
0B
1E
1@
1=
11
12
14
19
16
1'
1*
1%
1#
1"
#125000
b1001 !
b1011 !
b11 !
1<
0;
0:
0=
01
02
0#
0"
#130000
b10 !
b0 !
0>
0<
0E
1D
1C
17
18
09
0*
1)
1(
#140000
b100 !
b1100 !
1;
1:
1E
0D
0A
1=
11
12
05
08
19
1*
0)
0&
1#
1"
#145000
b1110 !
b110 !
1<
0:
1D
1A
0@
0=
01
02
04
15
18
1)
1&
0%
0#
0"
#150000
b111 !
b11 !
1>
0;
0D
0C
1@
14
07
08
0)
0(
1%
#155000
b1 !
b101 !
0<
1;
1B
0@
04
06
0'
0%
#160000
b100 !
b0 !
0>
0;
0B
0E
1D
1C
1@
14
17
18
09
16
1'
0*
1)
1(
1%
#165000
b1000 !
b1010 !
1<
1:
1=
11
12
1#
1"
#170000
b1011 !
b1111 !
b111 !
1>
1;
0:
1B
0D
0C
0@
0=
01
02
04
07
08
06
0'
0)
0(
0%
0#
0"
#175000
b11 !
b1011 !
0;
1:
1@
0?
1=
11
12
03
14
1%
0$
1#
1"
#180000
b1010 !
b10 !
0>
0:
0B
1E
1C
0A
1?
0=
01
02
13
05
17
19
16
1'
1*
1(
0&
1$
0#
0"
#185000
b0 !
b100 !
b101 !
b1101 !
1>
0<
1;
1:
0C
1A
1=
11
12
15
07
0(
1&
1#
1"
#190000
b1100 !
b100 !
0>
0:
1D
0?
0=
01
02
03
18
1)
0$
0#
0"
#195000
b101 !
b1101 !
1>
1:
0D
1?
1=
11
12
13
08
0)
1$
1#
1"
#200000
b101 !
0:
1B
0@
0=
01
02
04
06
0'
0%
0#
0"
#205000
b111 !
b11 !
b10 !
b1010 !
0>
1<
0;
1:
0B
0E
1D
1C
1@
1=
11
12
14
17
18
09
16
1'
0*
1)
1(
1%
1#
1"
#210000
b1110 !
1;
1B
1E
0C
0?
03
07
19
06
0'
1*
0(
0$
#215000
b1100 !
b1101 !
b1001 !
1>
0<
0;
1?
0=
01
02
13
1$
0#
0"
#225000
b1011 !
b1111 !
1<
1;
0B
1=
11
12
16
1'
1#
1"
#230000
b111 !
b101 !
0<
0:
1B
0D
0@
0=
01
02
04
08
06
0'
0)
0%
0#
0"
#235000
b1101 !
1:
0B
1@
1=
11
12
14
16
1'
1%
1#
1"
#245000
b1100 !
b1000 !
b0 !
0>
0;
0:
0E
1D
1C
0=
01
02
17
18
09
0*
1)
1(
0#
0"
#250000
b10 !
b11 !
b1011 !
1>
1<
1:
1B
0D
0C
0?
1=
11
12
03
07
08
06
0'
0)
0(
0$
1#
1"
#255000
b1111 !
b1110 !
b110 !
0>
1;
0:
0B
1E
1D
1C
0@
1?
0=
01
02
13
04
17
18
19
16
1'
1*
1)
1(
0%
1$
0#
0"
#260000
b10 !
b11 !
1>
0;
0D
0C
1@
14
07
08
0)
0(
1%
#265000
b1 !
b1001 !
b1101 !
0<
1;
1:
1=
11
12
1#
1"
#270000
b1100 !
b1110 !
0>
1<
1B
1D
0?
03
18
06
0'
1)
0$
#275000
b1010 !
b1011 !
1>
0;
0E
0D
08
09
0*
0)
#280000
b1010 !
0>
0B
1D
1C
1?
13
17
18
16
1'
1)
1(
1$
#285000
b10 !
b0 !
b1 !
1>
0<
0:
1B
0C
0?
0=
01
02
03
07
06
0'
0(
0$
0#
0"
#290000
b101 !
b1101 !
b1111 !
b1110 !
0>
1<
1;
1:
1E
1=
11
12
19
1*
1#
1"
#295000
b1010 !
b10 !
b0 !
b1 !
1>
0<
0;
0:
0E
0=
01
02
09
0*
0#
0"
#300000
b0 !
0>
0B
1C
1?
13
17
16
1'
1(
1$
#305000
b100 !
b1100 !
1;
1:
1E
0D
0A
1=
11
12
05
08
19
1*
0)
0&
1#
1"
#310000
b100 !
0:
1D
0C
1A
0?
0=
01
02
03
15
07
18
1)
0(
1&
0$
0#
0"
#315000
b101 !
1>
1B
0D
0@
1?
13
04
08
06
0'
0)
0%
1$
#320000
b1 !
b1001 !
b1000 !
0>
0;
1:
0B
1D
1C
1@
14
17
18
16
1'
1)
1(
1%
#325000
b1010 !
b1110 !
b110 !
b111 !
1>
1<
1;
0:
1B
0E
0D
0C
0@
04
07
08
09
06
0'
0*
0)
0(
0%
#330000
b11 !
0;
0B
1E
1@
14
19
16
1'
1*
1%
#335000
b1 !
b0 !
b100 !
0>
0<
1;
1D
0?
03
18
1)
0$
#340000
b101 !
1>
1B
0D
0@
1?
13
04
08
06
0'
0)
0%
1$
#350000
b1101 !
b1100 !
0>
1:
0B
1C
0A
1@
1=
11
12
14
05
17
16
1'
1(
0&
1%
1#
1"
#355000
b1101 !
1>
0C
1A
15
07
0(
1&
#360000
b1111 !
b1011 !
1<
0;
1B
0E
0?
03
09
06
0'
0*
0$
#365000
b1001 !
0<
1E
1D
1?
0=
01
02
13
18
19
1*
1)
1$
0#
0"
#370000
b1000 !
b1010 !
0>
1<
0B
0E
1C
1=
11
12
17
09
16
1'
0*
1(
1#
1"
#385000
b10 !
b110 !
1;
0:
1E
0@
0=
01
02
04
19
1*
0%
0#
0"
#390000
b100 !
b1100 !
0<
1:
0D
0A
1@
1=
11
12
14
05
08
0)
0&
1%
1#
1"
#395000
b1101 !
b1111 !
b111 !
1>
1<
0:
1B
0E
0C
1A
0@
0=
01
02
04
15
07
09
06
0'
0*
0(
1&
0%
0#
0"
#400000
b11 !
b1 !
0<
0;
1D
1@
0?
03
14
18
1)
1%
0$
#405000
b101 !
b111 !
1<
1;
0D
0@
1?
13
04
08
0)
0%
1$
#410000
b110 !
b1110 !
b1010 !
0>
0;
1:
0B
1D
1C
1@
1=
11
12
14
17
18
16
1'
1)
1(
1%
1#
1"
#420000
b1000 !
b1001 !
b1 !
1>
0<
0:
1B
0C
0?
0=
01
02
03
07
06
0'
0(
0$
0#
0"
#430000
b101 !
b111 !
b110 !
0>
1<
1;
0B
1E
1C
0@
1?
13
04
17
19
16
1'
1*
1(
0%
1$
#435000
b10 !
b0 !
0<
0;
0E
1@
14
09
0*
1%
#440000
b100 !
1;
1E
0C
0?
03
07
19
1*
0(
0$
#445000
b1100 !
b1101 !
b1001 !
1>
0;
1:
1B
1?
13
06
0'
1$
#450000
b1000 !
0>
0B
1C
17
16
1'
1(
#455000
b1010 !
b1011 !
1>
1<
1B
0E
0D
0C
0?
1=
11
12
03
07
08
09
06
0'
0*
0)
0(
0$
1#
1"
#465000
b1001 !
b1000 !
0>
0<
0B
1E
1D
1C
1?
0=
01
02
13
17
18
19
16
1'
1*
1)
1(
1$
0#
0"
#470000
b0 !
b100 !
b110 !
b111 !
1>
1<
1;
0:
1B
0E
0D
0C
0@
04
07
08
09
06
0'
0*
0)
0(
0%
#475000
b1111 !
b1101 !
0<
1:
0B
1E
1@
1=
11
12
14
19
16
1'
1*
1%
1#
1"
#485000
b1100 !
0>
1C
0A
05
17
1(
0&
#495000
b1101 !
1>
0C
1A
15
07
0(
1&
#500000
b1001 !
b1 !
b11 !
1<
0;
0:
0=
01
02
0#
0"
#505000
b10 !
b110 !
b100 !
0>
0<
1;
1D
0?
03
18
1)
0$
#510000
b101 !
b1 !
b11 !
1>
1<
0;
0D
1?
13
08
0)
1$
#515000
b1011 !
b1010 !
b1110 !
b1100 !
0>
0<
1;
1:
1C
0A
1=
11
12
05
17
1(
0&
1#
1"
#520000
b1000 !
b1010 !
1<
0;
0E
1D
1A
15
18
09
0*
1)
1&
#525000
b10 !
b110 !
b100 !
0<
1;
0:
1E
0C
0?
0=
01
02
03
07
19
1*
0(
0$
0#
0"
#530000
b1100 !
b1110 !
1<
1:
1B
1=
11
12
06
0'
1#
1"
#535000
b1111 !
b111 !
1>
0:
0E
0D
0@
1?
0=
01
02
13
04
08
09
0*
0)
0%
1$
0#
0"
#540000
b11 !
b1 !
b1001 !
0<
0;
1:
1E
1D
1@
14
18
19
1*
1)
1%
#545000
b1000 !
b1010 !
b10 !
0>
1<
0:
0B
0D
1C
0A
05
17
08
16
1'
0)
1(
0&
#550000
b110 !
1;
1D
1A
0@
04
15
18
1)
1&
0%
#555000
b1110 !
b1010 !
0;
1:
0E
1@
1=
11
12
14
09
0*
1%
1#
1"
#565000
b1000 !
b0 !
b100 !
0<
1;
0:
1E
0C
0?
0=
01
02
03
07
19
1*
0(
0$
0#
0"
#570000
b0 !
0;
0E
1C
1?
13
17
09
0*
1(
1$
#575000
b1000 !
b1100 !
1;
1:
1E
0D
0A
1=
11
12
05
08
19
1*
0)
0&
1#
1"
#580000
b1110 !
b110 !
1<
0:
1D
1A
0@
0=
01
02
04
15
18
1)
1&
0%
0#
0"
#585000
b111 !
b11 !
b1011 !
1>
0;
1:
1B
0E
0D
0C
1@
0?
1=
11
12
03
14
07
08
09
06
0'
0*
0)
0(
1%
0$
1#
1"
#590000
b1111 !
b111 !
1;
0:
0@
1?
0=
01
02
13
04
0%
1$
0#
0"
#595000
b110 !
0>
0B
1E
1D
1C
17
18
19
16
1'
1*
1)
1(
#600000
b100 !
b1100 !
0<
1:
0D
0A
1@
1=
11
12
14
05
08
0)
0&
1%
1#
1"
#605000
b1000 !
0;
1D
1A
0=
01
02
15
18
1)
1&
0#
0"
#610000
b1001 !
b1 !
b101 !
1>
1;
0:
1B
0D
0C
0@
04
07
08
06
0'
0)
0(
0%
#615000
b100 !
b1100 !
0>
1:
0B
1C
0A
1@
1=
11
12
14
05
17
16
1'
1(
0&
1%
1#
1"
#620000
b1110 !
b1010 !
b10 !
1<
0;
0:
0=
01
02
0#
0"
#625000
b11 !
b1 !
b1001 !
1>
0<
1:
1B
1D
0C
1A
15
07
18
06
0'
1)
0(
1&
#630000
b1011 !
b11 !
1<
0:
0B
0D
08
16
1'
0)
#635000
b1011 !
1:
1B
0E
0?
1=
11
12
03
09
06
0'
0*
0$
1#
1"
#645000
b1111 !
b1110 !
b1100 !
0>
0<
1;
0B
1E
1C
0A
1?
13
05
17
19
16
1'
1*
1(
0&
1$
#655000
b100 !
0:
1D
0C
1A
0?
0=
01
02
03
15
07
18
1)
0(
1&
0$
0#
0"
#660000
b0 !
b1 !
b11 !
b1011 !
1>
1<
0;
1:
1B
0E
0D
1=
11
12
08
09
06
0'
0*
0)
1#
1"
#665000
b1111 !
b1110 !
b110 !
0>
1;
0:
0B
1E
1D
1C
0@
1?
0=
01
02
13
04
17
18
19
16
1'
1*
1)
1(
0%
1$
0#
0"
#670000
b10 !
b1010 !
0;
1:
0E
1@
1=
11
12
14
09
0*
1%
1#
1"
#675000
b1011 !
b1111 !
1>
1;
1E
0C
07
19
1*
0(
#680000
b1101 !
b101 !
b100 !
b0 !
0>
0<
0;
0:
0E
1C
0=
01
02
17
09
0*
1(
0#
0"
#685000
b1 !
1>
1B
0C
0?
03
07
06
0'
0(
0$
#690000
b0 !
0>
0B
1C
1?
13
17
16
1'
1(
1$
#695000
b10 !
b1010 !
1<
1:
1=
11
12
1#
1"
#700000
b1000 !
b0 !
0<
0:
0=
01
02
0#
0"
#705000
b100 !
b110 !
b1110 !
1<
1;
1:
1B
1E
0C
0?
1=
11
12
03
07
19
06
0'
1*
0(
0$
1#
1"
#710000
b1111 !
b111 !
1>
0:
0E
0D
0@
1?
0=
01
02
13
04
08
09
0*
0)
0%
1$
0#
0"
#715000
b11 !
b10 !
0>
0;
0B
1E
1C
0A
1@
14
05
17
19
16
1'
1*
1(
0&
1%
#720000
b110 !
b111 !
1>
1;
1B
0E
0C
1A
0@
04
15
07
09
06
0'
0*
0(
1&
0%
#730000
b101 !
0<
1E
19
1*
#735000
b1 !
b0 !
0>
0;
0B
0E
1D
1C
1@
14
17
18
09
16
1'
0*
1)
1(
1%
#740000
b1000 !
b1010 !
b1011 !
1>
1<
1:
1B
0D
0C
0?
1=
11
12
03
07
08
06
0'
0)
0(
0$
1#
1"
#745000
b1111 !
b111 !
1;
0:
0@
1?
0=
01
02
13
04
0%
1$
0#
0"
#750000
b1111 !
1:
0B
1E
1D
1@
1=
11
12
14
18
19
16
1'
1*
1)
1%
1#
1"
#755000
b111 !
0:
1B
0E
0D
0@
0=
01
02
04
08
09
06
0'
0*
0)
0%
0#
0"
#760000
b101 !
b1101 !
0<
1:
0B
1E
1@
1=
11
12
14
19
16
1'
1*
1%
1#
1"
#765000
b1111 !
1<
1D
18
1)
#770000
b1011 !
0;
1B
0E
0D
0?
03
08
09
06
0'
0*
0)
0$
#780000
b1010 !
b10 !
b110 !
0>
1;
0:
0B
1E
1D
1C
0@
1?
0=
01
02
13
04
17
18
19
16
1'
1*
1)
1(
0%
1$
0#
0"
#785000
b100 !
b0 !
0<
0;
0E
1@
14
09
0*
1%
#790000
b1 !
b1001 !
b1011 !
1>
1<
1:
1B
0D
0C
0?
1=
11
12
03
07
08
06
0'
0)
0(
0$
1#
1"
#800000
b11 !
b1 !
0<
0:
1D
0=
01
02
18
1)
0#
0"
#805000
b0 !
0>
0B
1C
1?
13
17
16
1'
1(
1$
#810000
b10 !
b11 !
1>
1<
1E
0D
0C
07
08
19
1*
0)
0(
#815000
b111 !
b101 !
0<
1;
1B
0@
04
06
0'
0%
#820000
b1101 !
b1100 !
b1110 !
0>
1<
1:
1D
1@
0?
1=
11
12
03
14
18
1)
1%
0$
1#
1"
#825000
b110 !
b111 !
b101 !
1>
0<
0:
0D
0@
1?
0=
01
02
13
04
08
0)
0%
1$
0#
0"
#830000
b1 !
b1001 !
0;
1:
1D
1@
14
18
1)
1%
#835000
b1 !
0:
0E
0?
03
09
0*
0$
#840000
b0 !
b10 !
b1010 !
0>
1<
1:
0B
1C
1?
1=
11
12
13
17
16
1'
1(
1$
1#
1"
#845000
b1110 !
b1111 !
b1101 !
1>
0<
1;
1E
0D
0C
07
08
19
1*
0)
0(
#850000
b101 !
0:
1B
0@
0=
01
02
04
06
0'
0%
0#
0"
#855000
b1 !
0;
0E
1D
1@
0?
03
14
18
09
0*
1)
1%
0$
#860000
b0 !
b1000 !
b1100 !
0>
1;
1:
0B
1E
0D
1C
0A
1?
1=
11
12
13
05
17
08
19
16
1'
1*
0)
1(
0&
1$
1#
1"
#865000
b1110 !
b1010 !
1<
0;
0E
1D
1A
15
18
09
0*
1)
1&
#870000
b1011 !
b1001 !
1>
0<
1B
1E
0C
0=
01
02
07
19
06
0'
1*
0(
0#
0"
#875000
b1 !
b0 !
0>
0:
0B
0E
1C
17
09
16
1'
0*
1(
#880000
b10 !
1<
1E
0D
0A
05
08
19
1*
0)
0&
#885000
b0 !
0<
0E
1D
1A
15
18
09
0*
1)
1&
#890000
b100 !
b1100 !
b1101 !
b1111 !
1>
1<
1;
1:
1E
0C
1=
11
12
07
19
1*
0(
1#
1"
#895000
b111 !
b101 !
0<
0:
1B
0D
0@
0=
01
02
04
08
06
0'
0)
0%
0#
0"
#900000
b1 !
b1001 !
0;
1:
1D
1@
14
18
1)
1%
#905000
b1011 !
b1111 !
1<
1;
0B
1=
11
12
16
1'
1#
1"
#910000
b1110 !
b1010 !
0>
0;
0E
1C
17
09
0*
1(
#915000
b10 !
b110 !
1;
0:
1E
0@
0=
01
02
04
19
1*
0%
0#
0"
#920000
b111 !
b1111 !
b1011 !
1>
0;
1:
1B
0E
0D
0C
1@
0?
1=
11
12
03
14
07
08
09
06
0'
0*
0)
0(
1%
0$
1#
1"
#925000
b1001 !
b1000 !
b0 !
b100 !
0>
0<
1;
0:
0B
1E
1D
0=
01
02
18
19
16
1'
1*
1)
0#
0"
#930000
b101 !
b1101 !
1>
1:
0D
1?
1=
11
12
13
08
0)
1$
1#
1"
#935000
b1111 !
1<
1D
18
1)
#940000
b1011 !
b1010 !
b1000 !
0>
0<
0;
1C
0=
01
02
17
1(
0#
0"
#945000
b0 !
b1 !
b11 !
1>
1<
0:
0D
0C
07
08
0)
0(
#950000
b111 !
b1111 !
b1101 !
0<
1;
1:
1=
11
12
1#
1"
#955000
b1100 !
b1110 !
0>
1<
1B
1D
0?
03
18
06
0'
1)
0$
#960000
b1010 !
b10 !
0;
0:
0B
0D
1C
0A
1?
0=
01
02
13
05
17
08
16
1'
0)
1(
0&
1$
0#
0"
#965000
b110 !
1;
1D
1A
0@
04
15
18
1)
1&
0%
#970000
b111 !
b1111 !
1>
1:
0C
1@
1=
11
12
14
07
0(
1%
1#
1"
#975000
b1101 !
b101 !
0<
0:
1B
0D
0@
0=
01
02
04
08
06
0'
0)
0%
0#
0"
#980000
b1 !
b11 !
b1011 !
1<
0;
1:
0E
1@
0?
1=
11
12
03
14
09
0*
1%
0$
1#
1"
#985000
b1001 !
b1 !
0<
0:
1D
0=
01
02
18
1)
0#
0"
#995000
b0 !
0>
0B
1C
1?
13
17
16
1'
1(
1$
